module gitlab.com/geo-gs/twombps

go 1.18

require (
	github.com/akavel/rsrc v0.10.2 // indirect
	github.com/dchest/jsmin v0.0.0-20220218165748-59f39799265f // indirect
	github.com/josephspurrier/goversioninfo v1.4.0 // indirect
	github.com/ncruces/zenity v0.9.2 // indirect
	github.com/randall77/makefat v0.0.0-20210315173500-7ddd0e42c844 // indirect
	golang.org/x/image v0.1.0 // indirect
	golang.org/x/sys v0.1.0 // indirect
)
